{
  "id": 0,
  "name": "Polen",
  "zones": [
    {
      "name": 80,
      "defactions": [
        {
          "id": 0,
          "name": "SB_2015"
        },
        {
          "id": 1,
          "name": "SB_2016"
        },
        {
          "id": 2,
          "name": "WW_2017"
        },
        {
          "id": 3,
          "name": "SB_2018"
        }
      ]
    },
    {
      "name": 46,
      "defactions": [
        {
          "id": 0,
          "name": "SB_2015"
        },
        {
          "id": 1,
          "name": "SB_2016"
        },
        {
          "id": 2,
          "name": "WW_2017"
        },
        {
          "id": 3,
          "name": "SB_2018"
        }
      ]
    },
    {
      "name": 53,
      "defactions": [
        {
          "id": 0,
          "name": "SB_2015"
        },
        {
          "id": 1,
          "name": "SB_2016"
        },
        {
          "id": 2,
          "name": "WW_2017"
        },
        {
          "id": 3,
          "name": "SB_2018"
        }
      ]
    },
    {
      "name": 1,
      "defactions": [
        {
          "id": 0,
          "name": "SB_2015"
        },
        {
          "id": 1,
          "name": "SB_2016"
        },
        {
          "id": 2,
          "name": "WW_2017"
        },
        {
          "id": 3,
          "name": "SB_2018"
        }
      ]
    },
    {
      "name": 12,
      "defactions": [
        {
          "id": 0,
          "name": "SB_2015"
        },
        {
          "id": 1,
          "name": "SB_2016"
        },
        {
          "id": 2,
          "name": "WW_2017"
        },
        {
          "id": 3,
          "name": "SB_2018"
        }
      ]
    },
    {
      "name": 103,
      "defactions": [
        {
          "id": 0,
          "name": "SB_2015"
        },
        {
          "id": 1,
          "name": "SB_2016"
        },
        {
          "id": 2,
          "name": "WW_2017"
        },
        {
          "id": 3,
          "name": "SB_2018"
        }
      ]
    },
    {
      "name": 55,
      "defactions": [
        {
          "id": 0,
          "name": "SB_2015"
        },
        {
          "id": 1,
          "name": "SB_2016"
        },
        {
          "id": 2,
          "name": "WW_2017"
        },
        {
          "id": 3,
          "name": "SB_2018"
        }
      ]
    },
    {
      "name": 3,
      "defactions": [
        {
          "id": 0,
          "name": "SB_2015"
        },
        {
          "id": 1,
          "name": "SB_2016"
        },
        {
          "id": 2,
          "name": "WW_2017"
        },
        {
          "id": 3,
          "name": "SB_2018"
        }
      ]
    },
    {
      "name": 2,
      "defactions": [
        {
          "id": 0,
          "name": "SB_2015"
        },
        {
          "id": 1,
          "name": "SB_2016"
        },
        {
          "id": 2,
          "name": "WW_2017"
        },
        {
          "id": 3,
          "name": "SB_2018"
        }
      ]
    },
    {
      "name": 89,
      "defactions": [
        {
          "id": 0,
          "name": "SB_2015"
        },
        {
          "id": 1,
          "name": "SB_2016"
        },
        {
          "id": 2,
          "name": "WW_2017"
        },
        {
          "id": 3,
          "name": "SB_2018"
        }
      ]
    }
  ]
}