{
  "type": "Spring Barley",
  "year": 2019,
  "name": 100,
  "events": [
    {
      "date": "07/04/2017",
      "actions": [
        {
          "action": "Fertilize 128 Kg N/ha"
        },
        {
          "action": "Seed bed preparation"
        },
        {
          "action": "Sow SB Normal"
        }
      ]
    },
    {
      "date": "21/08/2017",
      "actions": [
        {
          "action": "Harvest SB Normal"
        }
      ]
    },
    {
      "date": "22/08/2017",
      "actions": [
        {
          "action": "Stubble cultivation"
        }
      ]
    },
    {
      "date": "01/12/2017",
      "actions": [
        {
          "action": "Plowing"
        }
      ]
    },
    {
      "date": "07/04/2017",
      "actions": [
        {
          "action": "Fertilize 128 Kg N/ha"
        },
        {
          "action": "Seed bed preparation"
        },
        {
          "action": "Sow SB Normal"
        }
      ]
    },
    {
      "date": "21/08/2017",
      "actions": [
        {
          "action": "Harvest SB Normal"
        }
      ]
    },
    {
      "date": "22/08/2017",
      "actions": [
        {
          "action": "Stubble cultivation"
        }
      ]
    },
    {
      "date": "01/12/2017",
      "actions": [
        {
          "action": "Plowing"
        }
      ]
    }
  ]
}